STAT 413/613 Homework: Tidy Text
…
book_tidy(Sinclair)

## Warning: `is.tibble()` was deprecated in tibble 2.0.0.
## Please use `is_tibble()` instead.

## # A tibble: 47,828 x 4
##    gutenberg_id linenumber chapter word       
##           <int>      <int>   <int> <chr>      
##  1          140         52       1 chapter    
##  2          140         55       1 ceremony   
##  3          140         55       1 carriages  
##  4          140         56       1 arrive     
##  5          140         56       1 crowd      
##  6          140         56       1 owing      
##  7          140         57       1 exuberance 
##  8          140         57       1 marija     
##  9          140         57       1 berczynskas
## 10          140         57       1 occasion   
## # ... with 47,818 more rows

book_tidy(Duboise)

## # A tibble: 41,606 x 4
##    gutenberg_id linenumber chapter word    
##           <int>      <int>   <int> <chr>   
##  1        15265        142       1 dreams  
##  2        15265        145       1 night   
##  3        15265        145       1 fell    
##  4        15265        145       1 red     
##  5        15265        145       1 waters  
##  6        15265        145       1 swamp   
##  7        15265        145       1 grew    
##  8        15265        145       1 sinister
##  9        15265        145       1 sullen  
## 10        15265        146       1 tall    
## # ... with 41,596 more rows
…
book_tidy(Duboise) -> Duboise

1.10.1 

1.10.2 

1.10.3 

sinclair_new <- sinclair %>% 
  mutate(book = gutenberg_works(title == "The Jungle")[[2]],
         author = gutenberg_works(title == "The Jungle")[[3]]) 

 sinclair_new 

## # A tibble: 47,828 x 6
##    gutenberg_id linenumber chapter word        book       author         
##           <int>      <int>   <int> <chr>       <chr>      <chr>          
##  1          140         52       1 chapter     The Jungle Sinclair, Upton
##  2          140         55       1 ceremony    The Jungle Sinclair, Upton
##  3          140         55       1 carriages   The Jungle Sinclair, Upton
##  4          140         56       1 arrive      The Jungle Sinclair, Upton
##  5          140         56       1 crowd       The Jungle Sinclair, Upton
##  6          140         56       1 owing       The Jungle Sinclair, Upton
##  7          140         57       1 exuberance  The Jungle Sinclair, Upton
##  8          140         57       1 marija      The Jungle Sinclair, Upton
##  9          140         57       1 berczynskas The Jungle Sinclair, Upton
## 10          140         57       1 occasion    The Jungle Sinclair, Upton
## # ... with 47,818 more rows

- There are 47,828 rows in Sinclair book ## ##

Duboise_new <- Duboise %>% 
  mutate(book = gutenberg_works(title == "The Quest of the Silver Fleece: A Novel")[[2]],
         author = gutenberg_works(title == "The Quest of the Silver Fleece: A Novel")[[3]])

Duboise_new

## # A tibble: 41,606 x 6
##    gutenberg_id linenumber chapter word    book              author             
##           <int>      <int>   <int> <chr>   <chr>             <chr>              
##  1        15265        142       1 dreams  The Quest of the~ Du Bois, W. E. B. ~
##  2        15265        145       1 night   The Quest of the~ Du Bois, W. E. B. ~
##  3        15265        145       1 fell    The Quest of the~ Du Bois, W. E. B. ~
##  4        15265        145       1 red     The Quest of the~ Du Bois, W. E. B. ~
##  5        15265        145       1 waters  The Quest of the~ Du Bois, W. E. B. ~
##  6        15265        145       1 swamp   The Quest of the~ Du Bois, W. E. B. ~
##  7        15265        145       1 grew    The Quest of the~ Du Bois, W. E. B. ~
##  8        15265        145       1 sinist~ The Quest of the~ Du Bois, W. E. B. ~
##  9        15265        145       1 sullen  The Quest of the~ Du Bois, W. E. B. ~
## 10        15265        146       1 tall    The Quest of the~ Du Bois, W. E. B. ~
## # ... with 41,596 more rows

- There are 41,606 rows in Dubois book. ## ### 4. Use a dplyr function to combine the two tibbles into a new tibble. - It should have 89,434 rows with 6 variables

comb_sinclair_Dubiose <- sinclair_new %>% 
  full_join(Duboise_new, by = c("gutenberg_id", "linenumber", "chapter", "word", "book", "author"))

comb_sinclair_Dubiose

## # A tibble: 89,434 x 6
##    gutenberg_id linenumber chapter word        book       author         
##           <int>      <int>   <int> <chr>       <chr>      <chr>          
##  1          140         52       1 chapter     The Jungle Sinclair, Upton
##  2          140         55       1 ceremony    The Jungle Sinclair, Upton
##  3          140         55       1 carriages   The Jungle Sinclair, Upton
##  4          140         56       1 arrive      The Jungle Sinclair, Upton
##  5          140         56       1 crowd       The Jungle Sinclair, Upton
##  6          140         56       1 owing       The Jungle Sinclair, Upton
##  7          140         57       1 exuberance  The Jungle Sinclair, Upton
##  8          140         57       1 marija      The Jungle Sinclair, Upton
##  9          140         57       1 berczynskas The Jungle Sinclair, Upton
## 10          140         57       1 occasion    The Jungle Sinclair, Upton
## # ... with 89,424 more rows
…
Huckleberry Finn, Tom Sawyer , Connecticut Yankee in King Arthurs Court, Life on the Mississippi , Prince and the Pauper, and A Tramp Abroad

gutenberg_works() %>% 
  filter(author %in% "Twain, Mark",
         title %in% c("A Tramp Abroad", 
                      "A Connecticut Yankee in King Arthur's Court",
                      "The Prince and the Pauper",
                      "Life on the Mississippi",
                      "Adventures of Huckleberry Finn",
                      "The Adventures of Tom Sawyer")) %>% 
  gutenberg_download(meta_fields = "title") -> mark_twin_books

mark_twin_books

## # A tibble: 73,688 x 3
##    gutenberg_id text                           title                       
##           <int> <chr>                          <chr>                       
##  1           74 "THE ADVENTURES OF TOM SAWYER" The Adventures of Tom Sawyer
##  2           74 ""                             The Adventures of Tom Sawyer
##  3           74 ""                             The Adventures of Tom Sawyer
##  4           74 "By Mark Twain"                The Adventures of Tom Sawyer
##  5           74 ""                             The Adventures of Tom Sawyer
##  6           74 "(Samuel Langhorne Clemens)"   The Adventures of Tom Sawyer
##  7           74 ""                             The Adventures of Tom Sawyer
##  8           74 ""                             The Adventures of Tom Sawyer
##  9           74 ""                             The Adventures of Tom Sawyer
## 10           74 ""                             The Adventures of Tom Sawyer
## # ... with 73,678 more rows
…
book_tidy_2(mark_twin_books) -> new_book_tidy

new_book_tidy

## # A tibble: 56,759 x 3
##    title                                       word      n
##    <chr>                                       <chr> <int>
##  1 A Tramp Abroad                              the    9915
##  2 Life on the Mississippi                     the    9175
##  3 Adventures of Huckleberry Finn              and    6374
##  4 A Tramp Abroad                              and    6241
##  5 A Connecticut Yankee in King Arthur's Court the    6091
##  6 Life on the Mississippi                     and    5966
##  7 A Connecticut Yankee in King Arthur's Court and    5551
##  8 Adventures of Huckleberry Finn              the    4913
##  9 A Tramp Abroad                              a      4864
## 10 A Tramp Abroad                              of     4705
## # ... with 56,749 more rows

Calculate the tf-idf

Save back to the data frame.

new_book_tidy %>%
  
  bind_tf_idf(word, title,n) -> new_book_tidy

new_book_tidy

## # A tibble: 56,759 x 6
##    title                                       word      n     tf   idf tf_idf
##    <chr>                                       <chr> <int>  <dbl> <dbl>  <dbl>
##  1 A Tramp Abroad                              the    9915 0.0622     0      0
##  2 Life on the Mississippi                     the    9175 0.0623     0      0
##  3 Adventures of Huckleberry Finn              and    6374 0.0563     0      0
##  4 A Tramp Abroad                              and    6241 0.0392     0      0
##  5 A Connecticut Yankee in King Arthur's Court the    6091 0.0511     0      0
##  6 Life on the Mississippi                     and    5966 0.0405     0      0
##  7 A Connecticut Yankee in King Arthur's Court and    5551 0.0466     0      0
##  8 Adventures of Huckleberry Finn              the    4913 0.0434     0      0
##  9 A Tramp Abroad                              a      4864 0.0305     0      0
## 10 A Tramp Abroad                              of     4705 0.0295     0      0
## # ... with 56,749 more rows
…
