STAT 413/613 HW 1
…
Identify the top 5 best (highest ROI should be #1 ) and the bottom 5 worst?

What is American Universitys rank and ROI?

14 Solution

C_score %>% 
  select(ICLEVEL, INSTNM, MN_EARN_WNE_P10, GRAD_DEBT_MDN) %>%
  filter(!is.na(MN_EARN_WNE_P10),
         !is.na(GRAD_DEBT_MDN),
         ICLEVEL==1) %>% 
  summarise(ICLEVEL, INSTNM, Ratio=MN_EARN_WNE_P10/GRAD_DEBT_MDN) %>% 
  arrange(-Ratio)

## # A tibble: 2,293 x 3
##    ICLEVEL INSTNM                                    Ratio
##      <dbl> <chr>                                     <dbl>
##  1       1 SUNY Downstate Health Sciences University 13.6 
##  2       1 Stanford University                       12.5 
##  3       1 Massachusetts Institute of Technology     12.3 
##  4       1 California Institute of Technology        12.2 
##  5       1 Princeton University                      11.8 
##  6       1 Saint Augustine College                   10.8 
##  7       1 Harvard University                        10.0 
##  8       1 Duke University                            9.96
##  9       1 San Diego Mesa College                     9.58
## 10       1 Yale University                            9.57
## # ... with 2,283 more rows
…
